Яка машиночитаність потрібна для доступності використання відкритих даних
…
── Conflicts ────────────────────────────────────────── tidyverse_conflicts() ──
✖ dplyr::changes() masks ckanr::changes()
✖ dplyr::filter()  masks stats::filter()
✖ dplyr::lag()     masks stats::lag()
ℹ Use the conflicted package (<http://conflicted.r-lib.org/>) to force all conflicts to become errors

resource_search(url = "https://data.gov.ua", 
                q = "mimetype:rdf", 
                limit = c(), 
                as = 'table') |> 
  as_tibble() |> 
  unnest_wider(results) |> 
  select(mimetype, created)

# A tibble: 25 × 2
   mimetype            created                   
   <chr>               <chr>                     
 1 application/rdf+xml 2018-11-01T13:28:03.538971
 2 application/rdf+xml 2018-11-02T09:00:38.201840
 3 application/rdf+xml 2018-11-01T11:14:31.685839
 4 application/rdf+xml 2018-11-05T10:21:52.515944
 5 application/rdf+xml 2018-11-05T10:37:34.390529
 6 application/rdf+xml 2018-11-05T10:39:31.313447
 7 application/rdf+xml 2018-11-02T11:02:25.354277
 8 application/rdf+xml 2018-11-05T10:22:31.868074
 9 application/rdf+xml 2018-11-05T10:41:03.930371
10 application/rdf+xml 2018-11-05T10:23:24.421427
# ℹ 15 more rows
…
